r_workshop
…
## 'data.frame':    1704 obs. of  6 variables:
##  $ country  : chr  "Afghanistan" "Afghanistan" "Afghanistan" "Afghanistan" ...
##  $ year     : int  1952 1957 1962 1967 1972 1977 1982 1987 1992 1997 ...
##  $ pop      : num  8425333 9240934 10267083 11537966 13079460 ...
##  $ continent: chr  "Asia" "Asia" "Asia" "Asia" ...
##  $ lifeExp  : num  28.8 30.3 32 34 36.1 ...
##  $ gdpPercap: num  779 821 853 836 740 ...

gapminder %>% group_by(continent,year) %>% 
  summarize(mean_gdp_per_cap = mean(gdpPercap),
            sd_gdp_per_cap = sd(gdpPercap))

## `summarise()` has grouped output by 'continent'. You can override using the `.groups` argument.

## # A tibble: 60 x 4
## # Groups:   continent [5]
##    continent  year mean_gdp_per_cap sd_gdp_per_cap
##    <chr>     <int>            <dbl>          <dbl>
##  1 Africa     1952            1253.           983.
##  2 Africa     1957            1385.          1135.
##  3 Africa     1962            1598.          1462.
##  4 Africa     1967            2050.          2848.
##  5 Africa     1972            2340.          3287.
##  6 Africa     1977            2586.          4142.
##  7 Africa     1982            2482.          3243.
##  8 Africa     1987            2283.          2567.
##  9 Africa     1992            2282.          2644.
## 10 Africa     1997            2379.          2821.
## #  with 50 more rows
…
If else

gapminder %>%
  mutate(gdp_billion = ifelse(lifeExp > 25,
                              yes = gdpPercap * pop / 10^9,
                              no = NA)) %>%
  group_by(continent, year) %>%
  summarize(mean_gdp_per_cap = mean(gdpPercap),
            mean_gdp_billions = mean(gdp_billion)) #already using new column

## `summarise()` has grouped output by 'continent'. You can override using the `.groups` argument.

## # A tibble: 60 x 4
## # Groups:   continent [5]
##    continent  year mean_gdp_per_cap mean_gdp_billions
##    <chr>     <int>            <dbl>             <dbl>
##  1 Africa     1952            1253.              5.99
##  2 Africa     1957            1385.              7.36
##  3 Africa     1962            1598.              8.78
##  4 Africa     1967            2050.             11.4 
##  5 Africa     1972            2340.             15.1 
##  6 Africa     1977            2586.             18.7 
##  7 Africa     1982            2482.             22.0 
##  8 Africa     1987            2283.             24.1 
##  9 Africa     1992            2282.             NA   
## 10 Africa     1997            2379.             30.0 
## #  with 50 more rows
…
